{
    "dev": {
        "awscloudformation": {
            "AuthRoleName": "amplify-shoeseller-dev-171639-authRole",
            "UnauthRoleArn": "arn:aws:iam::521489151807:role/amplify-shoeseller-dev-171639-unauthRole",
            "AuthRoleArn": "arn:aws:iam::521489151807:role/amplify-shoeseller-dev-171639-authRole",
            "Region": "us-east-1",
            "DeploymentBucketName": "amplify-shoeseller-dev-171639-deployment",
            "UnauthRoleName": "amplify-shoeseller-dev-171639-unauthRole",
            "StackName": "amplify-shoeseller-dev-171639",
            "StackId": "arn:aws:cloudformation:us-east-1:521489151807:stack/amplify-shoeseller-dev-171639/9923c4b0-15ee-11eb-93a1-0a254e00bc9f",
            "AmplifyAppId": "dv442u1sszb5t"
        },
        "categories": {
            "auth": {
                "shoeseller3c07df1a": {
                    "hostedUIProviderCreds": "[]"
                }
            }
        }
    }
}